Midterm-Part2
…
text_df_Han = data.frame(doc_id = 1:length(xtext_Han), text = xtext_Han)
text_df_Ke = data.frame(doc_id = 1:length(xtext_Ke), text = xtext_Ke)

library(stringr)
tok99 = function(t) str_split(t,"[ ]{1,}")
td1 = unnest_tokens(text_df_Han, word, text, token=tok99)
td2 = td1 %>%
  count(doc_id,word,sort=T) %>%
  ungroup() %>%
  bind_tf_idf(word,doc_id, n)

td_tfidf_Han = arrange(td2,desc(tf_idf))
td_tfidf_Han

## # A tibble: 7,652 x 6
##    doc_id word      n      tf   idf tf_idf
##     <int> <chr> <int>   <dbl> <dbl>  <dbl>
##  1      1 =     19688 0.333       0      0
##  2      1 n      5731 0.0970      0      0
##  3      1 v      3932 0.0666      0      0
##  4      1 x      1820 0.0308      0      0
##  5      1 m      1182 0.0200      0      0
##  6      1 eng    1002 0.0170      0      0
##  7      1 a       739 0.0125      0      0
##  8      1 nr      569 0.00963     0      0
##  9      1 ns      558 0.00945     0      0
## 10      1 vn      551 0.00933     0      0
## # ... with 7,642 more rows

tok99 = function(t) str_split(t,"[ ]{1,}")
td1 = unnest_tokens(text_df_Ke, word, text, token=tok99)
td2 = td1 %>%
  count(doc_id,word,sort=T) %>%
  ungroup() %>%
  bind_tf_idf(word,doc_id, n)

td_tfidf_Ke = arrange(td2,desc(tf_idf))
td_tfidf_Ke

## # A tibble: 8,739 x 6
##    doc_id word      n      tf   idf tf_idf
##     <int> <chr> <int>   <dbl> <dbl>  <dbl>
##  1      1 =     37879 0.333       0      0
##  2      1 n     10993 0.0967      0      0
##  3      1 v      7579 0.0667      0      0
##  4      1 x      3008 0.0265      0      0
##  5      1 m      2873 0.0253      0      0
##  6      1 ns     1946 0.0171      0      0
##  7      1 eng    1716 0.0151      0      0
##  8      1 vn     1404 0.0124      0      0
##  9      1 nr     1175 0.0103      0      0
## 10      1 a      1083 0.00953     0      0
## # ... with 8,729 more rows
…
